C:\Users\Joel Saavedra\Documents\GIT\tdo_clientrest\src\main\java\com\dto\integration\dto\InventoryTransactionDTO.java
C:\Users\Joel Saavedra\Documents\GIT\tdo_clientrest\src\main\java\com\tdo\integration\dao\InventorySicarDao.java
C:\Users\Joel Saavedra\Documents\GIT\tdo_clientrest\src\main\java\com\tdo\integration\client\localmodel\FileTransferControl.java
C:\Users\Joel Saavedra\Documents\GIT\tdo_clientrest\src\main\java\com\tdo\integration\services\CashMovsService.java
C:\Users\Joel Saavedra\Documents\GIT\tdo_clientrest\src\main\java\com\dto\integration\dto\BaseResponse.java
C:\Users\Joel Saavedra\Documents\GIT\tdo_clientrest\src\main\java\com\tdo\integration\client\localmodel\BusinessUnitMapping.java
C:\Users\Joel Saavedra\Documents\GIT\tdo_clientrest\src\main\java\com\tdo\integration\client\localmodel\GeneralLedgerTaxMapping.java
C:\Users\Joel Saavedra\Documents\GIT\tdo_clientrest\src\main\java\com\tdo\integration\client\model\Articulo.java
C:\Users\Joel Saavedra\Documents\GIT\tdo_clientrest\src\main\java\com\dto\integration\dto\ArLockBoxImportC.java
C:\Users\Joel Saavedra\Documents\GIT\tdo_clientrest\src\main\java\com\dto\integration\dto\InventoryTransactionHeader.java
C:\Users\Joel Saavedra\Documents\GIT\tdo_clientrest\src\main\java\com\tdo\integration\client\model\Factura.java
C:\Users\Joel Saavedra\Documents\GIT\tdo_clientrest\src\main\java\com\tdo\integration\dao\RestClientDao.java
C:\Users\Joel Saavedra\Documents\GIT\tdo_clientrest\src\main\java\com\tdo\integration\client\AppActionListener.java
C:\Users\Joel Saavedra\Documents\GIT\tdo_clientrest\src\main\java\com\dto\integration\dto\GLInterface.java
C:\Users\Joel Saavedra\Documents\GIT\tdo_clientrest\src\main\java\com\tdo\integration\client\localmodel\CreditNoteRequestEntity.java
C:\Users\Joel Saavedra\Documents\GIT\tdo_clientrest\src\main\java\com\tdo\integration\client\model\Empresa.java
C:\Users\Joel Saavedra\Documents\GIT\tdo_clientrest\src\main\java\com\tdo\integration\services\NewItemService.java
C:\Users\Joel Saavedra\Documents\GIT\tdo_clientrest\src\main\java\com\dto\integration\dto\InventoryTransactionV1.java
C:\Users\Joel Saavedra\Documents\GIT\tdo_clientrest\src\main\java\com\dto\integration\dto\GLInterfaceV3.java
C:\Users\Joel Saavedra\Documents\GIT\tdo_clientrest\src\main\java\com\dto\integration\dto\ClientesJson.java
C:\Users\Joel Saavedra\Documents\GIT\tdo_clientrest\src\main\java\com\tdo\integration\services\CxCService.java
C:\Users\Joel Saavedra\Documents\GIT\tdo_clientrest\src\main\java\com\tdo\integration\client\localmodel\Sucursal.java
C:\Users\Joel Saavedra\Documents\GIT\tdo_clientrest\src\main\java\com\dto\integration\dto\RaInterfaceDistributionsAll.java
C:\Users\Joel Saavedra\Documents\GIT\tdo_clientrest\src\main\java\com\dto\integration\dto\RaInterfaceLinesAll.java
C:\Users\Joel Saavedra\Documents\GIT\tdo_clientrest\src\main\java\com\tdo\integration\ws\SOAPExchangeRate.java
C:\Users\Joel Saavedra\Documents\GIT\tdo_clientrest\src\main\java\com\tdo\integration\client\model\NotaCredito.java
C:\Users\Joel Saavedra\Documents\GIT\tdo_clientrest\src\main\java\com\dto\integration\dto\CreditDTO.java
C:\Users\Joel Saavedra\Documents\GIT\tdo_clientrest\src\main\java\com\tdo\integration\services\ClientLocalService.java
C:\Users\Joel Saavedra\Documents\GIT\tdo_clientrest\src\main\java\com\tdo\integration\client\model\CancelacionVenta.java
C:\Users\Joel Saavedra\Documents\GIT\tdo_clientrest\src\main\java\com\dto\integration\dto\InventoryTransactionLots.java
C:\Users\Joel Saavedra\Documents\GIT\tdo_clientrest\src\main\java\com\tdo\integration\services\NewCustomerService.java
C:\Users\Joel Saavedra\Documents\GIT\tdo_clientrest\src\main\java\com\tdo\integration\client\model\TipoPago.java
C:\Users\Joel Saavedra\Documents\GIT\tdo_clientrest\src\main\java\com\dto\integration\dto\Articulo.java
C:\Users\Joel Saavedra\Documents\GIT\tdo_clientrest\src\main\java\com\tdo\integration\client\model\NotaCreditoImpuestos.java
C:\Users\Joel Saavedra\Documents\GIT\tdo_clientrest\src\main\java\com\tdo\integration\client\model\Sales.java
C:\Users\Joel Saavedra\Documents\GIT\tdo_clientrest\src\main\java\com\dto\integration\dto\CustomerDTO.java
C:\Users\Joel Saavedra\Documents\GIT\tdo_clientrest\src\main\java\com\dto\integration\dto\PaymentDTO.java
C:\Users\Joel Saavedra\Documents\GIT\tdo_clientrest\src\main\java\com\dto\integration\dto\RaInterface.java
C:\Users\Joel Saavedra\Documents\GIT\tdo_clientrest\src\main\java\com\dto\integration\dto\InventoryTransaction.java
C:\Users\Joel Saavedra\Documents\GIT\tdo_clientrest\src\main\java\com\tdo\integration\services\CreditNoteService.java
C:\Users\Joel Saavedra\Documents\GIT\tdo_clientrest\src\main\java\com\tdo\integration\services\InventoryService.java
C:\Users\Joel Saavedra\Documents\GIT\tdo_clientrest\src\main\java\com\tdo\integration\client\model\FacturaImpuestos.java
C:\Users\Joel Saavedra\Documents\GIT\tdo_clientrest\src\main\java\com\tdo\integration\client\localmodel\Udc.java
C:\Users\Joel Saavedra\Documents\GIT\tdo_clientrest\src\main\java\com\tdo\integration\services\InventoryMonitorService.java
C:\Users\Joel Saavedra\Documents\GIT\tdo_clientrest\src\main\java\com\tdo\integration\services\InventoryTransactionService.java
C:\Users\Joel Saavedra\Documents\GIT\tdo_clientrest\src\main\java\com\dto\integration\dto\ArticulosJson.java
C:\Users\Joel Saavedra\Documents\GIT\tdo_clientrest\src\main\java\com\tdo\integration\services\RESTService.java
C:\Users\Joel Saavedra\Documents\GIT\tdo_clientrest\src\main\java\com\tdo\integration\client\model\DetalleLote.java
C:\Users\Joel Saavedra\Documents\GIT\tdo_clientrest\src\main\java\com\dto\integration\dto\InventoryTransactionCost.java
C:\Users\Joel Saavedra\Documents\GIT\tdo_clientrest\src\main\java\com\tdo\integration\client\Main.java
C:\Users\Joel Saavedra\Documents\GIT\tdo_clientrest\src\main\java\com\tdo\integration\services\CreditService.java
C:\Users\Joel Saavedra\Documents\GIT\tdo_clientrest\src\main\java\com\tdo\integration\services\PaymentService.java
C:\Users\Joel Saavedra\Documents\GIT\tdo_clientrest\src\main\java\com\tdo\integration\services\GLService.java
C:\Users\Joel Saavedra\Documents\GIT\tdo_clientrest\src\main\java\com\tdo\integration\client\model\NotaCreditoAbono.java
C:\Users\Joel Saavedra\Documents\GIT\tdo_clientrest\src\main\java\com\tdo\integration\client\localmodel\CustomerAccountSite.java
C:\Users\Joel Saavedra\Documents\GIT\tdo_clientrest\src\main\java\com\tdo\integration\ws\ExchangeRateProducer.java
C:\Users\Joel Saavedra\Documents\GIT\tdo_clientrest\src\main\java\com\tdo\integration\client\model\ArticuloImpuesto.java
C:\Users\Joel Saavedra\Documents\GIT\tdo_clientrest\src\main\java\com\tdo\integration\client\localmodel\InventoryTransferControl.java
C:\Users\Joel Saavedra\Documents\GIT\tdo_clientrest\src\main\java\com\tdo\integration\dao\CustomerLocalDao.java
C:\Users\Joel Saavedra\Documents\GIT\tdo_clientrest\src\main\java\com\dto\integration\dto\InventoryMonitorDTO.java
C:\Users\Joel Saavedra\Documents\GIT\tdo_clientrest\src\main\java\com\tdo\integration\client\model\Cliente.java
C:\Users\Joel Saavedra\Documents\GIT\tdo_clientrest\src\main\java\com\tdo\integration\services\SalesService.java
C:\Users\Joel Saavedra\Documents\GIT\tdo_clientrest\src\main\java\com\tdo\integration\client\model\MovimientosCaja.java
C:\Users\Joel Saavedra\Documents\GIT\tdo_clientrest\src\main\java\com\tdo\integration\services\UDCService.java
C:\Users\Joel Saavedra\Documents\GIT\tdo_clientrest\src\main\java\com\tdo\integration\client\RestConnection.java
C:\Users\Joel Saavedra\Documents\GIT\tdo_clientrest\src\main\java\com\tdo\integration\client\localmodel\GeneralLedgerMapping.java
C:\Users\Joel Saavedra\Documents\GIT\tdo_clientrest\src\main\java\com\tdo\integration\dao\ClientLocalDao.java
C:\Users\Joel Saavedra\Documents\GIT\tdo_clientrest\src\main\java\com\dto\integration\dto\CreditNoteResponseDTO.java
C:\Users\Joel Saavedra\Documents\GIT\tdo_clientrest\src\main\java\com\dto\integration\dto\SalesDTO.java
C:\Users\Joel Saavedra\Documents\GIT\tdo_clientrest\src\main\java\com\tdo\integration\client\model\Abono.java
C:\Users\Joel Saavedra\Documents\GIT\tdo_clientrest\src\main\java\com\dto\integration\util\AppConstants.java
C:\Users\Joel Saavedra\Documents\GIT\tdo_clientrest\src\main\java\com\tdo\integration\client\model\Credito.java
C:\Users\Joel Saavedra\Documents\GIT\tdo_clientrest\src\main\java\com\tdo\integration\client\localmodel\LockBoxImportMapping.java
